{"pages":9,"currentPage":0,"totalRecords":85,"collection":[{"id":1,"requisition":{"id":1,"title":"BTA/Consultant/ Sr. Consultant/Manager- Deloitte Digital- Frontend Referral","requisitionNo":"E18HCCONDP-DDFEREF","function":"consulting","functionDesc":"Consulting","speciality":"TECH","specialityDesc":"Technology","serviceLine":"DD","serviceLineDesc":"Deloitte Digital","recruiterName":"Palakurthy, Durga Swetha","recruiterAsstName":""},"referrer":{"id":1,"empNo":432888,"firstName":"Bhupalam","lastName":"Naga Pradeep","email":"nbhupalam@deloitte.com","type":null},"candidate":{"id":2,"empNo":null,"firstName":"Bhargav","lastName":"Bonthapalli","email":"bhargavb914@gmail.com","type":null,"rmsId":20943810,"mobile":"","currentStatus":null,"gender":null,"genderDesc":null,"currentFirm":null,"currentDesignation":null,"currentLocation":"Hyderabad","preferredLocation":null,"totalExperience":null,"relevantExperience":null,"currentCtc":null,"expectedCtc":null,"noticePeriod":null,"visaStatus":null,"skillSet":[{"id":1,"code":"Frontend"}],"experience":0,"attachments":[],"applicationCreationDate":null,"referenceDate":null,"newReferenceDate":null,"referrals":[{"id":1,"requisition":{"id":1,"title":"BTA/Consultant/ Sr. Consultant/Manager- Deloitte Digital- Frontend Referral","requisitionNo":"E18HCCONDP-DDFEREF","function":"consulting","functionDesc":"Consulting","speciality":"TECH","specialityDesc":"Technology","serviceLine":"DD","serviceLineDesc":"Deloitte Digital","recruiterName":"Palakurthy, Durga Swetha","recruiterAsstName":""},"referrer":{"id":1,"empNo":432888,"firstName":"Bhupalam","lastName":"Naga Pradeep","email":"nbhupalam@deloitte.com","type":null},"candidate":null,"sourceType":"Referral","applicationSource":"Employee Referral","rmsStatus":"Technical Screen-To be Initiated","comments":"","additionalComments":"","sharedWith":"Kanika Sargoch","correspondence":"No","status":"new","statusDesc":null,"subStatus":"tech1_scheduled","subStatusDesc":null,"wfStatus":{"id":2,"wfStatus":"screening","wfStatusDesc":"Screening","wfSubstatus":null,"wfSubstatusDesc":null,"targetPaths":[{"id":3,"wfStatus":"in_review","wfStatusDesc":"In Review","wfSubstatus":null,"wfSubstatusDesc":null,"targetPaths":[]}]}}]},"sourceType":"Referral","applicationSource":"Employee Referral","rmsStatus":"Technical Screen-To be Initiated","comments":"","additionalComments":"","sharedWith":"Kanika Sargoch","correspondence":"No","status":"new","statusDesc":null,"subStatus":"tech1_scheduled","subStatusDesc":null,"wfStatus":{"id":2,"wfStatus":"screening","wfStatusDesc":"Screening","wfSubstatus":null,"wfSubstatusDesc":null,"targetPaths":[{"id":3,"wfStatus":"in_review","wfStatusDesc":"In Review","wfSubstatus":null,"wfSubstatusDesc":null,"targetPaths":[]}]}},{"id":2,"requisition":{"id":2,"title":"BTA/Consultant/ Sr. Consultant/Manager- Deloitte Digital- Frontend Referral","requisitionNo":"E18HCCONDP-DDFEREF","function":"consulting","functionDesc":"Consulting","speciality":"TECH","specialityDesc":"Technology","serviceLine":"DD","serviceLineDesc":"Deloitte Digital","recruiterName":"Palakurthy, Durga Swetha","recruiterAsstName":""},"referrer":{"id":3,"empNo":7022268268,"firstName":"Khasnobis","lastName":"Pritha","email":"pkhasnobis@deloitte.com","type":null},"candidate":{"id":4,"empNo":null,"firstName":"Sreyan","lastName":"Choudhury","email":"royboy.26@gmail.com","type":null,"rmsId":20956208,"mobile":"","currentStatus":null,"gender":null,"genderDesc":null,"currentFirm":null,"currentDesignation":null,"currentLocation":"","preferredLocation":null,"totalExperience":null,"relevantExperience":null,"currentCtc":null,"expectedCtc":null,"noticePeriod":null,"visaStatus":null,"skillSet":[{"id":1,"code":"Frontend"}],"experience":0,"attachments":[],"applicationCreationDate":null,"referenceDate":null,"newReferenceDate":null,"referrals":[{"id":2,"requisition":{"id":2,"title":"BTA/Consultant/ Sr. Consultant/Manager- Deloitte Digital- Frontend Referral","requisitionNo":"E18HCCONDP-DDFEREF","function":"consulting","functionDesc":"Consulting","speciality":"TECH","specialityDesc":"Technology","serviceLine":"DD","serviceLineDesc":"Deloitte Digital","recruiterName":"Palakurthy, Durga Swetha","recruiterAsstName":""},"referrer":{"id":3,"empNo":7022268268,"firstName":"Khasnobis","lastName":"Pritha","email":"pkhasnobis@deloitte.com","type":null},"candidate":null,"sourceType":"Direct Mail","applicationSource":"Email","rmsStatus":"Technical Screen-To be Initiated","comments":"","additionalComments":"","sharedWith":"Kanika Sargoch","correspondence":"No","status":"new","statusDesc":null,"subStatus":null,"subStatusDesc":null,"wfStatus":{"id":4,"wfStatus":"in_process","wfStatusDesc":"In Process","wfSubstatus":"tech1_scheduled","wfSubstatusDesc":"Tech1 Scheduled","targetPaths":[{"id":5,"wfStatus":"in_process","wfStatusDesc":"In Process","wfSubstatus":"tech2_scheduled","wfSubstatusDesc":"Tech2 Scheduled","targetPaths":[]},{"id":7,"wfStatus":"in_process","wfStatusDesc":"In Process","wfSubstatus":"reschedule_tech1","wfSubstatusDesc":"Reschedule Tech1","targetPaths":[]},{"id":9,"wfStatus":"in_process","wfStatusDesc":"In Process","wfSubstatus":"reschedule_final","wfSubstatusDesc":"Reschedule Final","targetPaths":[]},{"id":12,"wfStatus":"in_process","wfStatusDesc":"In Process","wfSubstatus":"no_response","wfSubstatusDesc":"No Response","targetPaths":[]},{"id":14,"wfStatus":"in_process","wfStatusDesc":"In Process","wfSubstatus":"tech1_reject","wfSubstatusDesc":"Tech1 Rejected","targetPaths":[]}]}}]},"sourceType":"Direct Mail","applicationSource":"Email","rmsStatus":"Technical Screen-To be Initiated","comments":"","additionalComments":"","sharedWith":"Kanika Sargoch","correspondence":"No","status":"new","statusDesc":null,"subStatus":null,"subStatusDesc":null,"wfStatus":{"id":4,"wfStatus":"in_process","wfStatusDesc":"In Process","wfSubstatus":"tech1_scheduled","wfSubstatusDesc":"Tech1 Scheduled","targetPaths":[{"id":5,"wfStatus":"in_process","wfStatusDesc":"In Process","wfSubstatus":"tech2_scheduled","wfSubstatusDesc":"Tech2 Scheduled","targetPaths":[]},{"id":7,"wfStatus":"in_process","wfStatusDesc":"In Process","wfSubstatus":"reschedule_tech1","wfSubstatusDesc":"Reschedule Tech1","targetPaths":[]},{"id":9,"wfStatus":"in_process","wfStatusDesc":"In Process","wfSubstatus":"reschedule_final","wfSubstatusDesc":"Reschedule Final","targetPaths":[]},{"id":12,"wfStatus":"in_process","wfStatusDesc":"In Process","wfSubstatus":"no_response","wfSubstatusDesc":"No Response","targetPaths":[]},{"id":14,"wfStatus":"in_process","wfStatusDesc":"In Process","wfSubstatus":"tech1_reject","wfSubstatusDesc":"Tech1 Rejected","targetPaths":[]}]}},{"id":3,"requisition":{"id":3,"title":"BTA/Consultant/ Sr. Consultant/Manager- Deloitte Digital- Frontend Referral","requisitionNo":"E18HCCONDP-DDFEREF","function":"consulting","functionDesc":"Consulting","speciality":"TECH","specialityDesc":"Technology","serviceLine":"DD","serviceLineDesc":"Deloitte Digital","recruiterName":"Palakurthy, Durga Swetha","recruiterAsstName":""},"referrer":{"id":5,"empNo":400958,"firstName":"Simharaju","lastName":"Pratyusha","email":"psimharaju@deloitte.com","type":null},"candidate":{"id":6,"empNo":null,"firstName":"Srujana","lastName":"Enduri","email":"srujanaesr@gmail.com","type":null,"rmsId":20957096,"mobile":"","currentStatus":null,"gender":null,"genderDesc":null,"currentFirm":null,"currentDesignation":null,"currentLocation":"Hyderabad","preferredLocation":null,"totalExperience":null,"relevantExperience":null,"currentCtc":null,"expectedCtc":null,"noticePeriod":null,"visaStatus":null,"skillSet":[{"id":1,"code":"Frontend"}],"experience":0,"attachments":[],"applicationCreationDate":null,"referenceDate":null,"newReferenceDate":null,"referrals":[{"id":3,"requisition":{"id":3,"title":"BTA/Consultant/ Sr. Consultant/Manager- Deloitte Digital- Frontend Referral","requisitionNo":"E18HCCONDP-DDFEREF","function":"consulting","functionDesc":"Consulting","speciality":"TECH","specialityDesc":"Technology","serviceLine":"DD","serviceLineDesc":"Deloitte Digital","recruiterName":"Palakurthy, Durga Swetha","recruiterAsstName":""},"referrer":{"id":5,"empNo":400958,"firstName":"Simharaju","lastName":"Pratyusha","email":"psimharaju@deloitte.com","type":null},"candidate":null,"sourceType":"Referral","applicationSource":"Employee Referral-Bonus Eligible","rmsStatus":"Technical Screen-To be Initiated","comments":"","additionalComments":"","sharedWith":"Kanika Sargoch","correspondence":"No","status":"new","statusDesc":null,"subStatus":null,"subStatusDesc":null,"wfStatus":{"id":1,"wfStatus":"new","wfStatusDesc":"New","wfSubstatus":null,"wfSubstatusDesc":null,"targetPaths":[{"id":2,"wfStatus":"screening","wfStatusDesc":"Screening","wfSubstatus":null,"wfSubstatusDesc":null,"targetPaths":[]}]}}]},"sourceType":"Referral","applicationSource":"Employee Referral-Bonus Eligible","rmsStatus":"Technical Screen-To be Initiated","comments":"","additionalComments":"","sharedWith":"Kanika Sargoch","correspondence":"No","status":"new","statusDesc":null,"subStatus":null,"subStatusDesc":null,"wfStatus":{"id":1,"wfStatus":"new","wfStatusDesc":"New","wfSubstatus":null,"wfSubstatusDesc":null,"targetPaths":[{"id":2,"wfStatus":"screening","wfStatusDesc":"Screening","wfSubstatus":null,"wfSubstatusDesc":null,"targetPaths":[]}]}},{"id":4,"requisition":{"id":4,"title":"BTA/Consultant/ Sr. Consultant/Manager- Deloitte Digital- Frontend Referral","requisitionNo":"E18HCCONDP-DDFEREF","function":"consulting","functionDesc":"Consulting","speciality":"TECH","specialityDesc":"Technology","serviceLine":"DD","serviceLineDesc":"Deloitte Digital","recruiterName":"Palakurthy, Durga Swetha","recruiterAsstName":""},"referrer":{"id":7,"empNo":457407,"firstName":"Nagavi","lastName":"Shreedevi S","email":"snagavi@deloitte.com","type":null},"candidate":{"id":8,"empNo":null,"firstName":"Fahim","lastName":"Ismailmagdum","email":"junnedi30@gmail.com","type":null,"rmsId":17097892,"mobile":"","currentStatus":null,"gender":null,"genderDesc":null,"currentFirm":null,"currentDesignation":null,"currentLocation":"Bangalore","preferredLocation":null,"totalExperience":null,"relevantExperience":null,"currentCtc":null,"expectedCtc":null,"noticePeriod":null,"visaStatus":null,"skillSet":[{"id":1,"code":"Frontend"}],"experience":0,"attachments":[],"applicationCreationDate":null,"referenceDate":null,"newReferenceDate":null,"referrals":[{"id":4,"requisition":{"id":4,"title":"BTA/Consultant/ Sr. Consultant/Manager- Deloitte Digital- Frontend Referral","requisitionNo":"E18HCCONDP-DDFEREF","function":"consulting","functionDesc":"Consulting","speciality":"TECH","specialityDesc":"Technology","serviceLine":"DD","serviceLineDesc":"Deloitte Digital","recruiterName":"Palakurthy, Durga Swetha","recruiterAsstName":""},"referrer":{"id":7,"empNo":457407,"firstName":"Nagavi","lastName":"Shreedevi S","email":"snagavi@deloitte.com","type":null},"candidate":null,"sourceType":"Referral","applicationSource":"Employee Referral","rmsStatus":"Technical Screen-To be Initiated","comments":"","additionalComments":"","sharedWith":"Kanika Sargoch","correspondence":"No","status":"new","statusDesc":null,"subStatus":null,"subStatusDesc":null,"wfStatus":{"id":1,"wfStatus":"new","wfStatusDesc":"New","wfSubstatus":null,"wfSubstatusDesc":null,"targetPaths":[{"id":2,"wfStatus":"screening","wfStatusDesc":"Screening","wfSubstatus":null,"wfSubstatusDesc":null,"targetPaths":[]}]}}]},"sourceType":"Referral","applicationSource":"Employee Referral","rmsStatus":"Technical Screen-To be Initiated","comments":"","additionalComments":"","sharedWith":"Kanika Sargoch","correspondence":"No","status":"new","statusDesc":null,"subStatus":null,"subStatusDesc":null,"wfStatus":{"id":1,"wfStatus":"new","wfStatusDesc":"New","wfSubstatus":null,"wfSubstatusDesc":null,"targetPaths":[{"id":2,"wfStatus":"screening","wfStatusDesc":"Screening","wfSubstatus":null,"wfSubstatusDesc":null,"targetPaths":[]}]}},{"id":5,"requisition":{"id":5,"title":"BTA/Consultant/ Sr. Consultant/Manager- Deloitte Digital- Frontend Referral","requisitionNo":"E18HCCONDP-DDFEREF","function":"consulting","functionDesc":"Consulting","speciality":"TECH","specialityDesc":"Technology","serviceLine":"DD","serviceLineDesc":"Deloitte Digital","recruiterName":"Palakurthy, Durga Swetha","recruiterAsstName":""},"referrer":{"id":9,"empNo":9533741313,"firstName":"Padala","lastName":"Bala Manikanta Rama Reddy","email":"bapadala@deloitte.com","type":null},"candidate":{"id":10,"empNo":null,"firstName":"Venkata Sai Raja Sekhar","lastName":"Kommaraju","email":"kommarajusekhar1990@gmail.com","type":null,"rmsId":16922352,"mobile":"","currentStatus":null,"gender":null,"genderDesc":null,"currentFirm":null,"currentDesignation":null,"currentLocation":"Hyderabad","preferredLocation":null,"totalExperience":null,"relevantExperience":null,"currentCtc":null,"expectedCtc":null,"noticePeriod":null,"visaStatus":null,"skillSet":[{"id":1,"code":"Frontend"}],"experience":0,"attachments":[],"applicationCreationDate":null,"referenceDate":null,"newReferenceDate":null,"referrals":[{"id":5,"requisition":{"id":5,"title":"BTA/Consultant/ Sr. Consultant/Manager- Deloitte Digital- Frontend Referral","requisitionNo":"E18HCCONDP-DDFEREF","function":"consulting","functionDesc":"Consulting","speciality":"TECH","specialityDesc":"Technology","serviceLine":"DD","serviceLineDesc":"Deloitte Digital","recruiterName":"Palakurthy, Durga Swetha","recruiterAsstName":""},"referrer":{"id":9,"empNo":9533741313,"firstName":"Padala","lastName":"Bala Manikanta Rama Reddy","email":"bapadala@deloitte.com","type":null},"candidate":null,"sourceType":"Referral","applicationSource":"Employee Referral","rmsStatus":"Technical Screen-To be Initiated","comments":"","additionalComments":"","sharedWith":"Kanika Sargoch","correspondence":"No","status":"new","statusDesc":null,"subStatus":null,"subStatusDesc":null,"wfStatus":{"id":1,"wfStatus":"new","wfStatusDesc":"New","wfSubstatus":null,"wfSubstatusDesc":null,"targetPaths":[{"id":2,"wfStatus":"screening","wfStatusDesc":"Screening","wfSubstatus":null,"wfSubstatusDesc":null,"targetPaths":[]}]}}]},"sourceType":"Referral","applicationSource":"Employee Referral","rmsStatus":"Technical Screen-To be Initiated","comments":"","additionalComments":"","sharedWith":"Kanika Sargoch","correspondence":"No","status":"new","statusDesc":null,"subStatus":null,"subStatusDesc":null,"wfStatus":{"id":1,"wfStatus":"new","wfStatusDesc":"New","wfSubstatus":null,"wfSubstatusDesc":null,"targetPaths":[{"id":2,"wfStatus":"screening","wfStatusDesc":"Screening","wfSubstatus":null,"wfSubstatusDesc":null,"targetPaths":[]}]}},{"id":6,"requisition":{"id":6,"title":"BTA/Consultant/ Sr. Consultant/Manager- Deloitte Digital- Frontend Referral","requisitionNo":"E18HCCONDP-DDFEREF","function":"consulting","functionDesc":"Consulting","speciality":"TECH","specialityDesc":"Technology","serviceLine":"DD","serviceLineDesc":"Deloitte Digital","recruiterName":"Palakurthy, Durga Swetha","recruiterAsstName":""},"referrer":{"id":11,"empNo":474846,"firstName":"Uppalapati","lastName":"Prithvi Raju","email":"prituppalapati@deloitte.com","type":null},"candidate":{"id":12,"empNo":null,"firstName":"Pavan Kumar","lastName":"Nandam","email":"pknandam@gmail.com","type":null,"rmsId":20955628,"mobile":"8885191747","currentStatus":null,"gender":"not-available","genderDesc":null,"currentFirm":null,"currentDesignation":null,"currentLocation":null,"preferredLocation":null,"totalExperience":null,"relevantExperience":null,"currentCtc":null,"expectedCtc":null,"noticePeriod":null,"visaStatus":null,"skillSet":[{"id":1,"code":"Frontend"}],"experience":0,"attachments":[],"applicationCreationDate":null,"referenceDate":null,"newReferenceDate":null,"referrals":[{"id":6,"requisition":{"id":6,"title":"BTA/Consultant/ Sr. Consultant/Manager- Deloitte Digital- Frontend Referral","requisitionNo":"E18HCCONDP-DDFEREF","function":"consulting","functionDesc":"Consulting","speciality":"TECH","specialityDesc":"Technology","serviceLine":"DD","serviceLineDesc":"Deloitte Digital","recruiterName":"Palakurthy, Durga Swetha","recruiterAsstName":""},"referrer":{"id":11,"empNo":474846,"firstName":"Uppalapati","lastName":"Prithvi Raju","email":"prituppalapati@deloitte.com","type":null},"candidate":null,"sourceType":"Referral","applicationSource":"Employee Referral-Bonus Eligible","rmsStatus":"Technical Screen-To be Initiated","comments":"","additionalComments":"","sharedWith":"Kanika Sargoch","correspondence":"No","status":"new","statusDesc":null,"subStatus":null,"subStatusDesc":null,"wfStatus":{"id":1,"wfStatus":"new","wfStatusDesc":"New","wfSubstatus":null,"wfSubstatusDesc":null,"targetPaths":[{"id":2,"wfStatus":"screening","wfStatusDesc":"Screening","wfSubstatus":null,"wfSubstatusDesc":null,"targetPaths":[]}]}}]},"sourceType":"Referral","applicationSource":"Employee Referral-Bonus Eligible","rmsStatus":"Technical Screen-To be Initiated","comments":"","additionalComments":"","sharedWith":"Kanika Sargoch","correspondence":"No","status":"new","statusDesc":null,"subStatus":null,"subStatusDesc":null,"wfStatus":{"id":1,"wfStatus":"new","wfStatusDesc":"New","wfSubstatus":null,"wfSubstatusDesc":null,"targetPaths":[{"id":2,"wfStatus":"screening","wfStatusDesc":"Screening","wfSubstatus":null,"wfSubstatusDesc":null,"targetPaths":[]}]}},{"id":7,"requisition":{"id":7,"title":"BTA/Consultant/ Sr. Consultant/Manager- Deloitte Digital- Frontend Referral","requisitionNo":"E18HCCONDP-DDFEREF","function":"consulting","functionDesc":"Consulting","speciality":"TECH","specialityDesc":"Technology","serviceLine":"DD","serviceLineDesc":"Deloitte Digital","recruiterName":"Palakurthy, Durga Swetha","recruiterAsstName":""},"referrer":{"id":13,"empNo":431475,"firstName":"Kalra","lastName":"Jatin","email":"kalrajits@gmail.com","type":null},"candidate":{"id":14,"empNo":null,"firstName":"Nibha","lastName":"Rajput","email":"nibha193@gmail.com","type":null,"rmsId":20959386,"mobile":"","currentStatus":null,"gender":null,"genderDesc":null,"currentFirm":null,"currentDesignation":null,"currentLocation":"Pune","preferredLocation":null,"totalExperience":null,"relevantExperience":null,"currentCtc":null,"expectedCtc":null,"noticePeriod":null,"visaStatus":null,"skillSet":[{"id":1,"code":"Frontend"}],"experience":0,"attachments":[],"applicationCreationDate":null,"referenceDate":null,"newReferenceDate":null,"referrals":[{"id":7,"requisition":{"id":7,"title":"BTA/Consultant/ Sr. Consultant/Manager- Deloitte Digital- Frontend Referral","requisitionNo":"E18HCCONDP-DDFEREF","function":"consulting","functionDesc":"Consulting","speciality":"TECH","specialityDesc":"Technology","serviceLine":"DD","serviceLineDesc":"Deloitte Digital","recruiterName":"Palakurthy, Durga Swetha","recruiterAsstName":""},"referrer":{"id":13,"empNo":431475,"firstName":"Kalra","lastName":"Jatin","email":"kalrajits@gmail.com","type":null},"candidate":null,"sourceType":"Referral","applicationSource":"Employee Referral-Bonus Eligible","rmsStatus":"Technical Screen-To be Initiated","comments":"","additionalComments":"","sharedWith":"Kanika Sargoch","correspondence":"No","status":"new","statusDesc":null,"subStatus":null,"subStatusDesc":null,"wfStatus":{"id":1,"wfStatus":"new","wfStatusDesc":"New","wfSubstatus":null,"wfSubstatusDesc":null,"targetPaths":[{"id":2,"wfStatus":"screening","wfStatusDesc":"Screening","wfSubstatus":null,"wfSubstatusDesc":null,"targetPaths":[]}]}}]},"sourceType":"Referral","applicationSource":"Employee Referral-Bonus Eligible","rmsStatus":"Technical Screen-To be Initiated","comments":"","additionalComments":"","sharedWith":"Kanika Sargoch","correspondence":"No","status":"new","statusDesc":null,"subStatus":null,"subStatusDesc":null,"wfStatus":{"id":1,"wfStatus":"new","wfStatusDesc":"New","wfSubstatus":null,"wfSubstatusDesc":null,"targetPaths":[{"id":2,"wfStatus":"screening","wfStatusDesc":"Screening","wfSubstatus":null,"wfSubstatusDesc":null,"targetPaths":[]}]}},{"id":8,"requisition":{"id":8,"title":"BTA/Consultant/ Sr. Consultant/Manager- Deloitte Digital- Frontend Referral","requisitionNo":"E18HCCONDP-DDFEREF","function":"consulting","functionDesc":"Consulting","speciality":"TECH","specialityDesc":"Technology","serviceLine":"DD","serviceLineDesc":"Deloitte Digital","recruiterName":"Palakurthy, Durga Swetha","recruiterAsstName":""},"referrer":{"id":15,"empNo":417287,"firstName":"Bondalapati","lastName":"Yeswanth","email":"ybondalapati@deloitte.com","type":null},"candidate":{"id":16,"empNo":null,"firstName":"Vivek","lastName":"Tak","email":"vivektak155@gmail.com","type":null,"rmsId":18937158,"mobile":"","currentStatus":null,"gender":null,"genderDesc":null,"currentFirm":null,"currentDesignation":null,"currentLocation":"ajmer","preferredLocation":null,"totalExperience":null,"relevantExperience":null,"currentCtc":null,"expectedCtc":null,"noticePeriod":null,"visaStatus":null,"skillSet":[{"id":1,"code":"Frontend"}],"experience":0,"attachments":[],"applicationCreationDate":null,"referenceDate":null,"newReferenceDate":null,"referrals":[{"id":8,"requisition":{"id":8,"title":"BTA/Consultant/ Sr. Consultant/Manager- Deloitte Digital- Frontend Referral","requisitionNo":"E18HCCONDP-DDFEREF","function":"consulting","functionDesc":"Consulting","speciality":"TECH","specialityDesc":"Technology","serviceLine":"DD","serviceLineDesc":"Deloitte Digital","recruiterName":"Palakurthy, Durga Swetha","recruiterAsstName":""},"referrer":{"id":15,"empNo":417287,"firstName":"Bondalapati","lastName":"Yeswanth","email":"ybondalapati@deloitte.com","type":null},"candidate":null,"sourceType":"Not Specified","applicationSource":"","rmsStatus":"Technical Screen-To be Initiated","comments":"","additionalComments":"","sharedWith":"Kanika Sargoch","correspondence":"No","status":"new","statusDesc":null,"subStatus":null,"subStatusDesc":null,"wfStatus":{"id":1,"wfStatus":"new","wfStatusDesc":"New","wfSubstatus":null,"wfSubstatusDesc":null,"targetPaths":[{"id":2,"wfStatus":"screening","wfStatusDesc":"Screening","wfSubstatus":null,"wfSubstatusDesc":null,"targetPaths":[]}]}}]},"sourceType":"Not Specified","applicationSource":"","rmsStatus":"Technical Screen-To be Initiated","comments":"","additionalComments":"","sharedWith":"Kanika Sargoch","correspondence":"No","status":"new","statusDesc":null,"subStatus":null,"subStatusDesc":null,"wfStatus":{"id":1,"wfStatus":"new","wfStatusDesc":"New","wfSubstatus":null,"wfSubstatusDesc":null,"targetPaths":[{"id":2,"wfStatus":"screening","wfStatusDesc":"Screening","wfSubstatus":null,"wfSubstatusDesc":null,"targetPaths":[]}]}},{"id":9,"requisition":{"id":9,"title":"BTA/Consultant/ Sr. Consultant/Manager- Deloitte Digital- Hybris Referral","requisitionNo":"E18HCCONDP-DDHYBRREF","function":"consulting","functionDesc":"Consulting","speciality":"TECH","specialityDesc":"Technology","serviceLine":"DD","serviceLineDesc":"Deloitte Digital","recruiterName":"Palakurthy, Durga Swetha","recruiterAsstName":""},"referrer":{"id":17,"empNo":431870,"firstName":"Mani S","lastName":"Anitha","email":"amanis@deloitte.com","type":null},"candidate":{"id":18,"empNo":null,"firstName":"Laxmi","lastName":"Pujari","email":"laxmibai.g.pujari@gmail.com","type":null,"rmsId":20954571,"mobile":"7899961606","currentStatus":null,"gender":"not-available","genderDesc":null,"currentFirm":null,"currentDesignation":null,"currentLocation":null,"preferredLocation":null,"totalExperience":null,"relevantExperience":null,"currentCtc":null,"expectedCtc":null,"noticePeriod":null,"visaStatus":null,"skillSet":[{"id":2,"code":"Hybris"}],"experience":0,"attachments":[],"applicationCreationDate":null,"referenceDate":null,"newReferenceDate":null,"referrals":[{"id":9,"requisition":{"id":9,"title":"BTA/Consultant/ Sr. Consultant/Manager- Deloitte Digital- Hybris Referral","requisitionNo":"E18HCCONDP-DDHYBRREF","function":"consulting","functionDesc":"Consulting","speciality":"TECH","specialityDesc":"Technology","serviceLine":"DD","serviceLineDesc":"Deloitte Digital","recruiterName":"Palakurthy, Durga Swetha","recruiterAsstName":""},"referrer":{"id":17,"empNo":431870,"firstName":"Mani S","lastName":"Anitha","email":"amanis@deloitte.com","type":null},"candidate":null,"sourceType":"Referral","applicationSource":"Employee Referral-Bonus Eligible","rmsStatus":"Technical Screen-To be Initiated","comments":"","additionalComments":"","sharedWith":"Kanika Sargoch","correspondence":"No","status":"new","statusDesc":null,"subStatus":null,"subStatusDesc":null,"wfStatus":{"id":1,"wfStatus":"new","wfStatusDesc":"New","wfSubstatus":null,"wfSubstatusDesc":null,"targetPaths":[{"id":2,"wfStatus":"screening","wfStatusDesc":"Screening","wfSubstatus":null,"wfSubstatusDesc":null,"targetPaths":[]}]}}]},"sourceType":"Referral","applicationSource":"Employee Referral-Bonus Eligible","rmsStatus":"Technical Screen-To be Initiated","comments":"","additionalComments":"","sharedWith":"Kanika Sargoch","correspondence":"No","status":"new","statusDesc":null,"subStatus":null,"subStatusDesc":null,"wfStatus":{"id":1,"wfStatus":"new","wfStatusDesc":"New","wfSubstatus":null,"wfSubstatusDesc":null,"targetPaths":[{"id":2,"wfStatus":"screening","wfStatusDesc":"Screening","wfSubstatus":null,"wfSubstatusDesc":null,"targetPaths":[]}]}},{"id":10,"requisition":{"id":10,"title":"BTA/Consultant/ Sr. Consultant/Manager- Deloitte Digital- Hybris Referral","requisitionNo":"E18HCCONDP-DDHYBRREF","function":"consulting","functionDesc":"Consulting","speciality":"TECH","specialityDesc":"Technology","serviceLine":"DD","serviceLineDesc":"Deloitte Digital","recruiterName":"Palakurthy, Durga Swetha","recruiterAsstName":""},"referrer":{"id":19,"empNo":7406222003,"firstName":"Garaga","lastName":"Venkata Rajesh","email":"rajgv@deloitte.com","type":null},"candidate":{"id":20,"empNo":null,"firstName":"Naga Srinivas","lastName":"Chitirala","email":"srinivaschitirala@gmail.com","type":null,"rmsId":20956677,"mobile":"","currentStatus":null,"gender":null,"genderDesc":null,"currentFirm":null,"currentDesignation":null,"currentLocation":"Hyderabad","preferredLocation":null,"totalExperience":null,"relevantExperience":null,"currentCtc":null,"expectedCtc":null,"noticePeriod":null,"visaStatus":null,"skillSet":[{"id":2,"code":"Hybris"}],"experience":0,"attachments":[],"applicationCreationDate":null,"referenceDate":null,"newReferenceDate":null,"referrals":[{"id":10,"requisition":{"id":10,"title":"BTA/Consultant/ Sr. Consultant/Manager- Deloitte Digital- Hybris Referral","requisitionNo":"E18HCCONDP-DDHYBRREF","function":"consulting","functionDesc":"Consulting","speciality":"TECH","specialityDesc":"Technology","serviceLine":"DD","serviceLineDesc":"Deloitte Digital","recruiterName":"Palakurthy, Durga Swetha","recruiterAsstName":""},"referrer":{"id":19,"empNo":7406222003,"firstName":"Garaga","lastName":"Venkata Rajesh","email":"rajgv@deloitte.com","type":null},"candidate":null,"sourceType":"Referral","applicationSource":"Employee Referral-Bonus Eligible","rmsStatus":"Technical Screen-To be Initiated","comments":"","additionalComments":"","sharedWith":"Kanika Sargoch","correspondence":"No","status":"new","statusDesc":null,"subStatus":null,"subStatusDesc":null,"wfStatus":{"id":1,"wfStatus":"new","wfStatusDesc":"New","wfSubstatus":null,"wfSubstatusDesc":null,"targetPaths":[{"id":2,"wfStatus":"screening","wfStatusDesc":"Screening","wfSubstatus":null,"wfSubstatusDesc":null,"targetPaths":[]}]}}]},"sourceType":"Referral","applicationSource":"Employee Referral-Bonus Eligible","rmsStatus":"Technical Screen-To be Initiated","comments":"","additionalComments":"","sharedWith":"Kanika Sargoch","correspondence":"No","status":"new","statusDesc":null,"subStatus":null,"subStatusDesc":null,"wfStatus":{"id":1,"wfStatus":"new","wfStatusDesc":"New","wfSubstatus":null,"wfSubstatusDesc":null,"targetPaths":[{"id":2,"wfStatus":"screening","wfStatusDesc":"Screening","wfSubstatus":null,"wfSubstatusDesc":null,"targetPaths":[]}]}}]}